riscv/src/trial.vcd
$date
	Sat Nov  6 14:30:17 2021
$end
$version
	Icarus Verilog
$end
$timescale
	1ps
$end
$scope module testbench $end
$var wire 32 ! rs2_val [31:0] $end
$var wire 32 " rs1_val [31:0] $end
$var reg 1 # clk $end
$var reg 32 $ cnt [31:0] $end
$var reg 32 % rd [31:0] $end
$var reg 32 & rs1 [31:0] $end
$var reg 1 ' rs1_read_rdy $end
$var reg 32 ( rs2 [31:0] $end
$var reg 1 ) rs2_read_rdy $end
$var reg 1 * rst $end
$var reg 1 + write_rdy $end
$var reg 32 , write_val [31:0] $end
$scope module regs $end
$var wire 1 # clk_in $end
$var wire 32 - rd [31:0] $end
$var wire 1 . rdy_in $end
$var wire 32 / rs1 [31:0] $end
$var wire 1 ' rs1_read_rdy $end
$var wire 32 0 rs2 [31:0] $end
$var wire 1 ) rs2_read_rdy $end
$var wire 1 * rst_in $end
$var wire 1 1 stall_in $end
$var wire 1 + write_rdy $end
$var wire 32 2 write_val [31:0] $end
$var reg 32 3 rs1_val [31:0] $end
$var reg 32 4 rs2_val [31:0] $end
$var integer 32 5 i [31:0] $end
$upscope $end
$upscope $end
$enddefinitions $end
#0
$dumpvars
b0 5
b0 4
b0 3
bx 2
01
bx 0
bx /
1.
bx -
bx ,
x+
1*
x)
bx (
x'
bx &
bx %
b0 $
0#
b0 "
b0 !
$end
#1000
b1 $
b0 ,
b0 2
0+
b0 %
b0 -
0)
0'
b0 (
b0 0
b0 &
b0 /
b100000 5
1#
#2000
0#
#3000
b10 $
b100000 5
1#
#4000
0#
#5000
b11 $
0*
1#
#6000
0#
#7000
b100 $
1#
#8000
0#
#9000
b101 $
1#
#10000
0#
#11000
b110 $
1#
#12000
0#
#13000
b111 $
1#
#14000
0#
#15000
b1000 $
1#
#16000
0#
#17000
b1001 $
1#
#18000
0#
#19000
b1010 $
1#
#20000
0#
#21000
b1011 $
1#
#22000
0#
#23000
b1100 $
1#
#24000
0#
#25000
b1101 $
1#
#26000
0#
#27000
b1110 $
1#
#28000
0#
#29000
b1111 $
1#
#30000
0#
#31000
b10000 $
1#
#32000
0#
#33000
b10001 $
1#
#34000
0#
#35000
b10010 $
1#
#36000
0#
#37000
b10011 $
1#
#38000
0#
#39000
b10100 $
1#
#40000
0#
#41000
b10101 $
1#
#42000
0#
#43000
b10110 $
1#
#44000
0#
#45000
b10111 $
1#
#46000
0#
#47000
b11000 $
1#
#48000
0#
#49000
b11001 $
1#
#50000
0#
#51000
b11010 $
1#
#52000
0#
#53000
b11011 $
1#
#54000
0#
#55000
b11100 $
1#
#56000
0#
#57000
b11101 $
1#
#58000
0#
#59000
b11110 $
1#
#60000
0#
#61000
b11111 $
1#
#62000
0#
#63000
1+
b1011 ,
b1011 2
b1 %
b1 -
b100000 $
1#
#64000
0#
#65000
b1011 "
b1011 3
1'
b1 &
b1 /
b100001 $
b1001101 ,
b1001101 2
1+
b111 %
b111 -
1#
#66000
0#
#67000
b1001101 !
b1001101 4
1)
b111 (
b111 0
b100010 $
b0 ,
b0 2
0+
b0 %
b0 -
1'
b1 &
b1 /
1#
#68000
0#
#69000
b100011 $
0)
0'
b0 (
b0 0
b0 &
b0 /
1#
#70000
0#
#71000
b100100 $
1#
#72000
0#
#73000
b100101 $
1#
#74000
0#
#75000
b100110 $
1#
#76000
0#
#77000
b100111 $
1#
#78000
0#
#79000
b101000 $
1#
#80000
0#
#81000
b101001 $
1#
#82000
0#
#83000
b101010 $
1#
#84000
0#
#85000
b101011 $
1#
#86000
0#
#87000
b101100 $
1#
#88000
0#
#89000
b101101 $
1#
#90000
0#
#91000
b101110 $
1#
#92000
0#
#93000
b101111 $
1#
#94000
0#
#95000
b110000 $
1#
#96000
0#
#97000
b110001 $
1#
#98000
0#
#99000
b110010 $
1#
#100000
0#
#101000
b1011 !
b1011 4
b1001101 "
b1001101 3
1)
b1 (
b1 0
1'
b111 &
b111 /
b110011 $
1#
#102000
0#
#103000
b110100 $
0)
0'
b0 (
b0 0
b0 &
b0 /
1#
#104000
0#
#105000
b110101 $
1#
#106000
0#
#107000
b110110 $
1#
#108000
0#
#109000
b110111 $
1#
#110000
0#
#111000
b111000 $
1#
#112000
0#
#113000
b111001 $
1#
#114000
0#
#115000
b111010 $
1#
#116000
0#
#117000
b111011 $
1#
#118000
0#
#119000
b111100 $
1#
#120000
0#
#121000
b111101 $
1#
#122000
0#
#123000
b111110 $
1#
#124000
0#
#125000
b111111 $
1#
#126000
0#
#127000
b1000000 $
1#
#128000
0#
#129000
b1000001 $
1#
#130000
0#
#131000
b1000010 $
1#
#132000
0#
#133000
b1000011 $
1#
#134000
0#
#135000
b1000100 $
1#
#136000
0#
#137000
b1000101 $
1#
#138000
0#
#139000
b1000110 $
1#
#140000
0#
#141000
b1000111 $
1#
#142000
0#
#143000
b1001000 $
1#
#144000
0#
#145000
b1001001 $
1#
#146000
0#
#147000
b1001010 $
1#
#148000
0#
#149000
b1001011 $
1#
#150000
0#
#151000
b1001100 $
1#
#152000
0#
#153000
b1001101 $
1#
#154000
0#
#155000
b1001110 $
1#
#156000
0#
#157000
b1001111 $
1#
#158000
0#
#159000
b1010000 $
1#
#160000
0#
#161000
b1010001 $
1#
#162000
0#
#163000
b1010010 $
1#
#164000
0#
#165000
b1010011 $
1#
#166000
0#
#167000
b1010100 $
1#
#168000
0#
#169000
b1010101 $
1#
#170000
0#
#171000
b1010110 $
1#
#172000
0#
#173000
b1010111 $
1#
#174000
0#
#175000
b1011000 $
1#
#176000
0#
#177000
b1011001 $
1#
#178000
0#
#179000
b1011010 $
1#
#180000
0#
#181000
b1011011 $
1#
#182000
0#
#183000
b1011100 $
1#
#184000
0#
#185000
b1011101 $
1#
#186000
0#
#187000
b1011110 $
1#
#188000
0#
#189000
b1011111 $
1#
#190000
0#
#191000
b1100000 $
1#
#192000
0#
#193000
b1100001 $
1#
#194000
0#
#195000
b1100010 $
1#
#196000
0#
#197000
b1100011 $
1#
#198000
0#
#199000
b1100100 $
1#
#200000
0#
#201000
b1100101 $
1#
#202000
0#
#203000
b1100110 $
1#
